# This file uses meters as units for non-parametric coordinates.

mtllib Pino.mtl
g default
v 22.846920 109.225814 -16.599294
v 8.726747 109.225814 -26.858196
v -8.726743 109.225814 -26.858193
v -22.846913 109.225814 -16.599287
v -28.240336 109.225814 -0.000032
v -22.846910 109.225814 16.599224
v -8.726739 109.225814 26.858125
v 8.726750 109.225814 26.858123
v 22.846918 109.225814 16.599219
v 28.240342 109.225814 -0.000034
v 24.162414 133.295520 -17.555055
v 9.229221 133.295520 -28.404653
v -9.229217 133.295520 -28.404646
v -24.162407 133.295520 -17.555050
v -29.866375 133.295520 -0.000032
v -24.162404 133.295520 17.554985
v -9.229213 133.295520 28.404581
v 9.229225 133.295520 28.404578
v 24.162412 133.295520 17.554981
v 29.866381 133.295520 -0.000034
v 22.808696 145.331997 -16.571522
v 8.712148 145.331997 -26.813262
v -8.712143 145.331997 -26.813261
v -22.808690 145.331997 -16.571517
v -28.193091 145.331997 -0.000032
v -22.808684 145.331997 16.571452
v -8.712137 145.331997 26.813192
v 8.712150 145.331997 26.813191
v 22.808696 145.331997 16.571450
v 28.193098 145.331997 -0.000034
v 16.571489 156.867861 -12.039924
v 6.329748 156.867861 -19.480984
v -6.329741 156.867861 -19.480984
v -16.571481 156.867861 -12.039921
v -20.483476 156.867861 -0.000033
v -16.571480 156.867861 12.039855
v -6.329737 156.867861 19.480916
v 6.329749 156.867861 19.480912
v 16.571489 156.867861 12.039853
v 20.483484 156.867861 -0.000034
v 8.712150 164.274370 -6.329779
v 3.327748 164.274370 -10.241776
v -3.327739 164.274370 -10.241774
v -8.712141 164.274370 -6.329777
v -10.768798 164.274370 -0.000033
v -8.712140 164.274370 6.329711
v -3.327738 164.274370 10.241706
v 3.327749 164.274370 10.241706
v 8.712150 164.274370 6.329709
v 10.768807 164.274370 -0.000034
v 0.000005 166.826487 -0.000034
v 6.648303 60.871424 -20.461385
v 17.405473 60.871424 -12.645839
v -6.648298 60.871424 -20.461410
v -17.405467 60.871424 -12.645861
v -21.514343 60.871424 -0.000024
v -17.405463 60.871424 12.645789
v -6.648293 60.871424 20.461318
v 6.648305 60.871424 20.461315
v 17.405473 60.871424 12.645774
v 21.514349 60.871424 -0.000035
v 8.400412 12.594861 -25.853796
v 21.992554 12.594861 -15.978536
v -8.400407 12.594861 -25.853832
v -21.992548 12.594861 -15.978567
v -27.184287 12.594861 -0.000011
v -21.992544 12.594861 15.978510
v -8.400402 12.594861 25.853740
v 8.400416 12.594861 25.853726
v 21.992554 12.594861 15.978476
v 27.184293 12.594861 -0.000035
v 10.951015 -3.441580 -33.703709
v 28.670121 -3.441553 -20.830055
v -10.951010 -3.441580 -33.703756
v -28.670118 -3.441553 -20.830097
v -35.438221 -3.441553 -0.000003
v -28.670115 -3.441553 20.830054
v -10.951005 -3.441553 33.703688
v 10.951023 -3.441553 33.703667
v 28.670121 -3.441553 20.830005
v 35.438220 -3.441553 -0.000034
v 14.508530 -39.860754 -44.652545
v 37.983821 -39.860740 -27.596822
v -14.508522 -39.860754 -44.652609
v -37.983818 -39.860740 -27.596885
v -46.950594 -39.860740 0.000002
v -37.983821 -39.860740 27.596858
v -14.508520 -39.860740 44.652581
v 14.508542 -39.860740 44.652557
v 37.983828 -39.860740 27.596789
v 46.950593 -39.860740 -0.000037
v 14.508697 -77.179201 -44.653030
v 37.984263 -77.179174 -27.597134
v -14.508689 -77.179174 -44.653101
v -37.984260 -77.179174 -27.597201
v -46.951140 -77.179174 0.000000
v -37.984263 -77.179174 27.597182
v -14.508691 -77.179174 44.653103
v 14.508712 -77.179174 44.653080
v 37.984269 -77.179174 27.597111
v 46.951139 -77.179174 -0.000040
v 12.067303 -115.069609 -37.139220
v 31.592632 -115.069555 -22.953332
v -12.067313 -115.069555 -37.139291
v -31.592636 -115.069555 -22.953406
v -39.050653 -115.069555 0.000004
v -31.592636 -115.069555 22.953395
v -12.067309 -115.069555 37.139307
v 12.067325 -115.069555 37.139284
v 31.592643 -115.069555 22.953331
v 39.050653 -115.069555 -0.000032
v 7.741434 -149.250385 -23.825590
v 20.267368 -149.250385 -14.725041
v -7.741450 -149.250385 -23.825639
v -20.267370 -149.250385 -14.725086
v -25.051857 -149.250385 0.000012
v -20.267370 -149.250385 14.725112
v -7.741444 -149.250385 23.825695
v 7.741453 -149.250385 23.825667
v 20.267375 -149.250385 14.725055
v 25.051856 -149.250385 -0.000011
v 5.772595 -160.767882 -17.766129
v 15.112873 -160.767882 -10.980083
v -5.772607 -160.767882 -17.766169
v -15.112875 -160.767882 -10.980115
v -18.680548 -160.767882 0.000018
v -15.112875 -160.767882 10.980155
v -5.772603 -160.767882 17.766238
v 5.772610 -160.767882 17.766216
v 15.112880 -160.767882 10.980115
v 18.680547 -160.767882 -0.000004
v 5.772718 -166.712529 -4.194138
v 2.204983 -166.712529 -6.786235
v 4.194158 -166.712448 -12.908244
v 10.980459 -166.712448 -7.977749
v -2.204977 -166.712529 -6.786209
v -4.194164 -166.712448 -12.908254
v -5.772709 -166.712529 -4.194097
v -10.980460 -166.712448 -7.977745
v -7.135461 -166.712529 0.000012
v -13.572595 -166.712448 0.000014
v -5.772709 -166.712529 4.194113
v -10.980460 -166.712448 7.977772
v -2.204976 -166.712529 6.786233
v -4.194160 -166.712448 12.908299
v 2.204984 -166.712529 6.786244
v 4.194167 -166.712448 12.908283
v 5.772715 -166.712529 4.194127
v 10.980466 -166.712448 7.977753
v 7.135470 -166.712529 0.000002
v 13.572602 -166.712448 -0.000006
v 5.772624 -166.712367 -17.766230
v 15.112949 -166.712367 -10.980142
v -5.772636 -166.712367 -17.766274
v -15.112951 -166.712367 -10.980173
v -18.680642 -166.712367 0.000015
v -15.112951 -166.712367 10.980208
v -5.772632 -166.712367 17.766329
v 5.772639 -166.712367 17.766305
v 15.112956 -166.712367 10.980172
v 18.680642 -166.712367 -0.000004
v 0.000004 -166.712529 0.000012
v 6.971263 43.563119 -21.455360
v 18.251006 43.563119 -13.260131
v 22.559488 43.563119 -0.000036
v 18.251006 43.563119 13.260095
v 6.971269 43.563119 21.455268
v -6.971256 43.563119 21.455268
v -18.251000 43.563119 13.260095
v -22.559481 43.563119 -0.000020
v -18.251000 43.563119 -13.260186
v -6.971260 43.563119 -21.455360
vt 0.000000 0.100000
vt 0.100000 0.100000
vt 0.200000 0.100000
vt 0.300000 0.100000
vt 0.400000 0.100000
vt 0.500000 0.100000
vt 0.600000 0.100000
vt 0.700000 0.100000
vt 0.800000 0.100000
vt 0.900000 0.100000
vt 1.000000 0.100000
vt 0.000000 0.200000
vt 0.100000 0.200000
vt 0.200000 0.200000
vt 0.300000 0.200000
vt 0.400000 0.200000
vt 0.500000 0.200000
vt 0.600000 0.200000
vt 0.700000 0.200000
vt 0.800000 0.200000
vt 0.900000 0.200000
vt 1.000000 0.200000
vt 0.000000 0.400000
vt 0.100000 0.400000
vt 0.200000 0.400000
vt 0.300000 0.400000
vt 0.400000 0.400000
vt 0.500000 0.400000
vt 0.600000 0.400000
vt 0.700000 0.400000
vt 0.800000 0.400000
vt 0.900000 0.400000
vt 1.000000 0.400000
vt 0.000000 0.600000
vt 0.100000 0.600000
vt 0.200000 0.600000
vt 0.300000 0.600000
vt 0.400000 0.600000
vt 0.500000 0.600000
vt 0.600000 0.600000
vt 0.700000 0.600000
vt 0.800000 0.600000
vt 0.900000 0.600000
vt 1.000000 0.600000
vt 0.000000 0.700000
vt 0.100000 0.700000
vt 0.200000 0.700000
vt 0.300000 0.700000
vt 0.400000 0.700000
vt 0.500000 0.700000
vt 0.600000 0.700000
vt 0.700000 0.700000
vt 0.800000 0.700000
vt 0.900000 0.700000
vt 1.000000 0.700000
vt 0.000000 0.800000
vt 0.100000 0.800000
vt 0.200000 0.800000
vt 0.300000 0.800000
vt 0.400000 0.800000
vt 0.500000 0.800000
vt 0.600000 0.800000
vt 0.700000 0.800000
vt 0.800000 0.800000
vt 0.900000 0.800000
vt 1.000000 0.800000
vt 0.000000 0.900000
vt 0.100000 0.900000
vt 0.200000 0.900000
vt 0.300000 0.900000
vt 0.400000 0.900000
vt 0.500000 0.900000
vt 0.600000 0.900000
vt 0.700000 0.900000
vt 0.800000 0.900000
vt 0.900000 0.900000
vt 1.000000 0.900000
vt 0.050000 0.000000
vt 0.150000 0.000000
vt 0.250000 0.000000
vt 0.350000 0.000000
vt 0.450000 0.000000
vt 0.550000 0.000000
vt 0.650000 0.000000
vt 0.750000 0.000000
vt 0.850000 0.000000
vt 0.950000 0.000000
vt 0.050000 1.000000
vt 0.150000 1.000000
vt 0.250000 1.000000
vt 0.350000 1.000000
vt 0.450000 1.000000
vt 0.550000 1.000000
vt 0.650000 1.000000
vt 0.750000 1.000000
vt 0.850000 1.000000
vt 0.950000 1.000000
vt 0.100000 0.300000
vt 0.000000 0.300000
vt 0.200000 0.300000
vt 0.300000 0.300000
vt 0.400000 0.300000
vt 0.500000 0.300000
vt 0.600000 0.300000
vt 0.700000 0.300000
vt 0.800000 0.300000
vt 0.900000 0.300000
vt 1.000000 0.300000
vt 0.100000 0.300000
vt 0.000000 0.300000
vt 0.200000 0.300000
vt 0.300000 0.300000
vt 0.400000 0.300000
vt 0.500000 0.300000
vt 0.600000 0.300000
vt 0.700000 0.300000
vt 0.800000 0.300000
vt 0.900000 0.300000
vt 1.000000 0.300000
vt 0.100000 0.300000
vt 0.000000 0.300000
vt 0.200000 0.300000
vt 0.300000 0.300000
vt 0.400000 0.300000
vt 0.500000 0.300000
vt 0.600000 0.300000
vt 0.700000 0.300000
vt 0.800000 0.300000
vt 0.900000 0.300000
vt 1.000000 0.300000
vt 0.100000 0.300000
vt 0.000000 0.300000
vt 0.200000 0.300000
vt 0.300000 0.300000
vt 0.400000 0.300000
vt 0.500000 0.300000
vt 0.600000 0.300000
vt 0.700000 0.300000
vt 0.800000 0.300000
vt 0.900000 0.300000
vt 1.000000 0.300000
vt 0.100000 0.300000
vt 0.000000 0.300000
vt 0.200000 0.300000
vt 0.300000 0.300000
vt 0.400000 0.300000
vt 0.500000 0.300000
vt 0.600000 0.300000
vt 0.700000 0.300000
vt 0.800000 0.300000
vt 0.900000 0.300000
vt 1.000000 0.300000
vt 0.100000 0.300000
vt 0.000000 0.300000
vt 0.200000 0.300000
vt 0.300000 0.300000
vt 0.400000 0.300000
vt 0.500000 0.300000
vt 0.600000 0.300000
vt 0.700000 0.300000
vt 0.800000 0.300000
vt 0.900000 0.300000
vt 1.000000 0.300000
vt 0.100000 0.300000
vt 0.000000 0.300000
vt 0.200000 0.300000
vt 0.300000 0.300000
vt 0.400000 0.300000
vt 0.500000 0.300000
vt 0.600000 0.300000
vt 0.700000 0.300000
vt 0.800000 0.300000
vt 0.900000 0.300000
vt 1.000000 0.300000
vt 0.100000 0.300000
vt 0.000000 0.300000
vt 0.200000 0.300000
vt 0.300000 0.300000
vt 0.400000 0.300000
vt 0.500000 0.300000
vt 0.600000 0.300000
vt 0.700000 0.300000
vt 0.800000 0.300000
vt 0.900000 0.300000
vt 1.000000 0.300000
vt 0.100000 0.300000
vt 0.000000 0.300000
vt 0.200000 0.300000
vt 0.300000 0.300000
vt 0.400000 0.300000
vt 0.500000 0.300000
vt 0.600000 0.300000
vt 0.700000 0.300000
vt 0.800000 0.300000
vt 0.900000 0.300000
vt 1.000000 0.300000
vt 0.100000 0.300000
vt 0.000000 0.300000
vt 1.000000 0.300000
vt 0.900000 0.300000
vt 0.800000 0.300000
vt 0.700000 0.300000
vt 0.600000 0.300000
vt 0.500000 0.300000
vt 0.400000 0.300000
vt 0.300000 0.300000
vt 0.200000 0.300000
vn 0.000008 -1.000000 -0.000006
vn 0.000003 -1.000000 -0.000009
vn 0.000005 -1.000000 -0.000014
vn 0.000012 -1.000000 -0.000008
vn -0.000003 -1.000000 -0.000009
vn -0.000005 -1.000000 -0.000015
vn -0.000008 -1.000000 -0.000005
vn -0.000012 -1.000000 -0.000009
vn -0.000010 -1.000000 -0.000000
vn -0.000015 -1.000000 -0.000001
vn -0.000008 -1.000000 0.000005
vn -0.000012 -1.000000 0.000009
vn -0.000003 -1.000000 0.000009
vn -0.000005 -1.000000 0.000014
vn 0.000003 -1.000000 0.000008
vn 0.000005 -1.000000 0.000014
vn 0.000008 -1.000000 0.000006
vn 0.000012 -1.000000 0.000009
vn 0.000010 -1.000000 0.000000
vn 0.000015 -1.000000 0.000000
vn 0.000005 -1.000000 -0.000015
vn 0.000013 -1.000000 -0.000008
vn -0.000005 -1.000000 -0.000016
vn -0.000013 -1.000000 -0.000010
vn -0.000016 -1.000000 -0.000001
vn -0.000013 -1.000000 0.000009
vn -0.000005 -1.000000 0.000016
vn 0.000005 -1.000000 0.000016
vn 0.000013 -1.000000 0.000010
vn 0.000016 -1.000000 0.000000
vn 0.307093 -0.111419 -0.945135
vn 0.803980 -0.111419 -0.584126
vn 0.805643 -0.091236 -0.585334
vn 0.307729 -0.091236 -0.947090
vn -0.307093 -0.111419 -0.945135
vn -0.307728 -0.091236 -0.947090
vn -0.803980 -0.111419 -0.584125
vn -0.805643 -0.091235 -0.585334
vn -0.993773 -0.111419 0.000000
vn -0.995829 -0.091235 0.000000
vn -0.803979 -0.111419 0.584126
vn -0.805642 -0.091236 0.585334
vn -0.307093 -0.111419 0.945135
vn -0.307728 -0.091236 0.947090
vn 0.307093 -0.111419 0.945135
vn 0.307728 -0.091236 0.947090
vn 0.803980 -0.111419 0.584125
vn 0.805643 -0.091236 0.585334
vn 0.993774 -0.111419 0.000000
vn 0.995829 -0.091236 -0.000000
vn 0.309017 0.000625 -0.951056
vn 0.809017 0.000625 -0.587785
vn -0.309017 0.000625 -0.951056
vn -0.809017 0.000625 -0.587785
vn -1.000000 0.000625 0.000000
vn -0.809017 0.000625 0.587785
vn -0.309017 0.000625 0.951056
vn 0.309017 0.000625 0.951056
vn 0.809017 0.000625 0.587785
vn 1.000000 0.000625 0.000000
vn 0.291092 0.335633 -0.895889
vn 0.762088 0.335633 -0.553689
vn -0.291092 0.335632 -0.895889
vn -0.762088 0.335632 -0.553690
vn -0.941993 0.335632 0.000000
vn -0.762088 0.335632 0.553690
vn -0.291092 0.335632 0.895889
vn 0.291092 0.335633 0.895889
vn 0.762088 0.335632 0.553690
vn 0.941993 0.335632 0.000000
vn 0.238769 0.634803 -0.734856
vn 0.625106 0.634803 -0.454166
vn -0.238769 0.634803 -0.734856
vn -0.625106 0.634803 -0.454166
vn -0.772674 0.634803 -0.000000
vn -0.625106 0.634803 0.454166
vn -0.238769 0.634803 0.734857
vn 0.238769 0.634803 0.734856
vn 0.625106 0.634803 0.454166
vn 0.772674 0.634803 -0.000000
vn 0.168794 0.837636 -0.519495
vn 0.441908 0.837636 -0.321066
vn -0.168794 0.837636 -0.519494
vn -0.441908 0.837636 -0.321065
vn -0.546229 0.837636 -0.000000
vn -0.441908 0.837636 0.321065
vn -0.168794 0.837636 0.519494
vn 0.168794 0.837636 0.519494
vn 0.441908 0.837636 0.321065
vn 0.546229 0.837636 -0.000000
vn 0.000000 -1.000000 -0.000000
vn -0.000000 1.000000 -0.000000
vn 0.306792 0.119803 -0.944206
vn 0.803190 0.119803 -0.583552
vn 0.774091 0.290647 -0.562411
vn 0.295677 0.290647 -0.910000
vn -0.306790 0.119803 -0.944207
vn -0.295675 0.290647 -0.910000
vn -0.803190 0.119803 -0.583552
vn -0.774092 0.290648 -0.562411
vn -0.992798 0.119803 0.000000
vn -0.956830 0.290648 0.000000
vn -0.803190 0.119803 0.583553
vn -0.774091 0.290648 0.562411
vn -0.306790 0.119803 0.944207
vn -0.295675 0.290648 0.910000
vn 0.306791 0.119803 0.944207
vn 0.295676 0.290648 0.910000
vn 0.803190 0.119803 0.583552
vn 0.774091 0.290648 0.562411
vn 0.992798 0.119803 0.000000
vn 0.956830 0.290648 -0.000000
vn 0.761086 0.339085 -0.552963
vn 0.290710 0.339084 -0.894712
vn -0.290708 0.339084 -0.894713
vn -0.761087 0.339085 -0.552963
vn -0.940755 0.339086 0.000000
vn -0.761087 0.339086 0.552963
vn -0.290708 0.339085 0.894712
vn 0.290709 0.339085 0.894712
vn 0.761087 0.339085 0.552963
vn 0.940755 0.339086 -0.000000
vn 0.801089 0.139644 -0.582027
vn 0.305989 0.139643 -0.941738
vn -0.305987 0.139643 -0.941739
vn -0.801090 0.139644 -0.582027
vn -0.990202 0.139644 -0.000000
vn -0.801089 0.139644 0.582027
vn -0.305988 0.139644 0.941738
vn 0.305989 0.139644 0.941738
vn 0.801090 0.139644 0.582026
vn 0.990202 0.139644 -0.000000
vn 0.805133 -0.097856 -0.584966
vn 0.307534 -0.097856 -0.946492
vn -0.307531 -0.097856 -0.946493
vn -0.805134 -0.097856 -0.584965
vn -0.995201 -0.097855 -0.000000
vn -0.805134 -0.097855 0.584965
vn -0.307532 -0.097855 0.946493
vn 0.307534 -0.097855 0.946492
vn 0.805134 -0.097855 0.584965
vn 0.995201 -0.097855 -0.000000
vn 0.778290 -0.272975 -0.565464
vn 0.297280 -0.272975 -0.914937
vn -0.297278 -0.272974 -0.914937
vn -0.778291 -0.272975 -0.565463
vn -0.962021 -0.272975 -0.000000
vn -0.778291 -0.272974 0.565463
vn -0.297279 -0.272974 0.914937
vn 0.297281 -0.272974 0.914937
vn 0.778291 -0.272974 0.565462
vn 0.962021 -0.272975 -0.000000
vn 0.742452 -0.397221 -0.539426
vn 0.283592 -0.397221 -0.872807
vn -0.283589 -0.397221 -0.872807
vn -0.742453 -0.397222 -0.539425
vn -0.917723 -0.397221 0.000000
vn -0.742453 -0.397221 0.539425
vn -0.283590 -0.397220 0.872807
vn 0.283592 -0.397220 0.872807
vn 0.742453 -0.397221 0.539425
vn 0.917723 -0.397221 -0.000000
vn 0.752587 -0.366922 -0.546791
vn 0.287463 -0.366921 -0.884723
vn -0.287461 -0.366922 -0.884723
vn -0.752589 -0.366922 -0.546789
vn -0.930252 -0.366922 0.000000
vn -0.752589 -0.366922 0.546789
vn -0.287462 -0.366921 0.884723
vn 0.287464 -0.366921 0.884722
vn 0.752589 -0.366921 0.546789
vn 0.930252 -0.366922 -0.000000
vn 0.809015 0.000016 -0.587789
vn 0.309016 0.000018 -0.951057
vn -0.309014 0.000018 -0.951057
vn -0.809016 0.000017 -0.587786
vn -1.000000 0.000016 0.000000
vn -0.809017 0.000016 0.587786
vn -0.309016 0.000016 0.951057
vn 0.309018 0.000016 0.951056
vn 0.809016 0.000016 0.587786
vn 1.000000 0.000016 -0.000000
s 1
g Pino
usemtl initialShadingGroup
f 132/1/1 133/2/2 134/13/3 135/12/4
f 133/2/2 136/3/5 137/14/6 134/13/3
f 136/3/5 138/4/7 139/15/8 137/14/6
f 138/4/7 140/5/9 141/16/10 139/15/8
f 140/5/9 142/6/11 143/17/12 141/16/10
f 142/6/11 144/7/13 145/18/14 143/17/12
f 144/7/13 146/8/15 147/19/16 145/18/14
f 146/8/15 148/9/17 149/20/18 147/19/16
f 148/9/17 150/10/19 151/21/20 149/20/18
f 150/10/19 132/11/1 135/22/4 151/21/20
f 135/12/4 134/13/3 152/186/21 153/187/22
f 134/13/3 137/14/6 154/188/23 152/186/21
f 137/14/6 139/15/8 155/189/24 154/188/23
f 139/15/8 141/16/10 156/190/25 155/189/24
f 141/16/10 143/17/12 157/191/26 156/190/25
f 143/17/12 145/18/14 158/192/27 157/191/26
f 145/18/14 147/19/16 159/193/28 158/192/27
f 147/19/16 149/20/18 160/194/29 159/193/28
f 149/20/18 151/21/20 161/195/30 160/194/29
f 151/21/20 135/22/4 153/196/22 161/195/30
s 2
f 2/24/31 1/23/32 53/99/33 52/98/34
f 3/25/35 2/24/31 52/98/34 54/100/36
f 4/26/37 3/25/35 54/100/36 55/101/38
f 5/27/39 4/26/37 55/101/38 56/102/40
f 6/28/41 5/27/39 56/102/40 57/103/42
f 7/29/43 6/28/41 57/103/42 58/104/44
f 8/30/45 7/29/43 58/104/44 59/105/46
f 9/31/47 8/30/45 59/105/46 60/106/48
f 10/32/49 9/31/47 60/106/48 61/107/50
f 1/33/32 10/32/49 61/107/50 53/108/33
f 2/24/31 12/35/51 11/34/52 1/23/32
f 3/25/35 13/36/53 12/35/51 2/24/31
f 4/26/37 14/37/54 13/36/53 3/25/35
f 5/27/39 15/38/55 14/37/54 4/26/37
f 6/28/41 16/39/56 15/38/55 5/27/39
f 7/29/43 17/40/57 16/39/56 6/28/41
f 8/30/45 18/41/58 17/40/57 7/29/43
f 9/31/47 19/42/59 18/41/58 8/30/45
f 10/32/49 20/43/60 19/42/59 9/31/47
f 1/33/32 11/44/52 20/43/60 10/32/49
f 11/34/52 12/35/51 22/46/61 21/45/62
f 12/35/51 13/36/53 23/47/63 22/46/61
f 13/36/53 14/37/54 24/48/64 23/47/63
f 14/37/54 15/38/55 25/49/65 24/48/64
f 15/38/55 16/39/56 26/50/66 25/49/65
f 16/39/56 17/40/57 27/51/67 26/50/66
f 17/40/57 18/41/58 28/52/68 27/51/67
f 18/41/58 19/42/59 29/53/69 28/52/68
f 19/42/59 20/43/60 30/54/70 29/53/69
f 20/43/60 11/44/52 21/55/62 30/54/70
f 21/45/62 22/46/61 32/57/71 31/56/72
f 22/46/61 23/47/63 33/58/73 32/57/71
f 23/47/63 24/48/64 34/59/74 33/58/73
f 24/48/64 25/49/65 35/60/75 34/59/74
f 25/49/65 26/50/66 36/61/76 35/60/75
f 26/50/66 27/51/67 37/62/77 36/61/76
f 27/51/67 28/52/68 38/63/78 37/62/77
f 28/52/68 29/53/69 39/64/79 38/63/78
f 29/53/69 30/54/70 40/65/80 39/64/79
f 30/54/70 21/55/62 31/66/72 40/65/80
f 31/56/72 32/57/71 42/68/81 41/67/82
f 32/57/71 33/58/73 43/69/83 42/68/81
f 33/58/73 34/59/74 44/70/84 43/69/83
f 34/59/74 35/60/75 45/71/85 44/70/84
f 35/60/75 36/61/76 46/72/86 45/71/85
f 36/61/76 37/62/77 47/73/87 46/72/86
f 37/62/77 38/63/78 48/74/88 47/73/87
f 38/63/78 39/64/79 49/75/89 48/74/88
f 39/64/79 40/65/80 50/76/90 49/75/89
f 40/65/80 31/66/72 41/77/82 50/76/90
s 1
f 133/2/2 132/1/1 162/78/91
f 136/3/5 133/2/2 162/79/91
f 138/4/7 136/3/5 162/80/91
f 140/5/9 138/4/7 162/81/91
f 142/6/11 140/5/9 162/82/91
f 144/7/13 142/6/11 162/83/91
f 146/8/15 144/7/13 162/84/91
f 148/9/17 146/8/15 162/85/91
f 150/10/19 148/9/17 162/86/91
f 132/11/1 150/10/19 162/87/91
s 2
f 41/67/82 42/68/81 51/88/92
f 42/68/81 43/69/83 51/89/92
f 43/69/83 44/70/84 51/90/92
f 44/70/84 45/71/85 51/91/92
f 45/71/85 46/72/86 51/92/92
f 46/72/86 47/73/87 51/93/92
f 47/73/87 48/74/88 51/94/92
f 48/74/88 49/75/89 51/95/92
f 49/75/89 50/76/90 51/96/92
f 50/76/90 41/77/82 51/97/92
f 163/197/93 164/198/94 63/110/95 62/109/96
f 172/207/97 163/197/93 62/109/96 64/111/98
f 171/206/99 172/207/97 64/111/98 65/112/100
f 170/205/101 171/206/99 65/112/100 66/113/102
f 169/204/103 170/205/101 66/113/102 67/114/104
f 168/203/105 169/204/103 67/114/104 68/115/106
f 167/202/107 168/203/105 68/115/106 69/116/108
f 166/201/109 167/202/107 69/116/108 70/117/110
f 165/200/111 166/201/109 70/117/110 71/118/112
f 164/199/94 165/200/111 71/118/112 63/119/95
f 62/109/96 63/110/95 73/121/113 72/120/114
f 64/111/98 62/109/96 72/120/114 74/122/115
f 65/112/100 64/111/98 74/122/115 75/123/116
f 66/113/102 65/112/100 75/123/116 76/124/117
f 67/114/104 66/113/102 76/124/117 77/125/118
f 68/115/106 67/114/104 77/125/118 78/126/119
f 69/116/108 68/115/106 78/126/119 79/127/120
f 70/117/110 69/116/108 79/127/120 80/128/121
f 71/118/112 70/117/110 80/128/121 81/129/122
f 63/119/95 71/118/112 81/129/122 73/130/113
f 72/120/114 73/121/113 83/132/123 82/131/124
f 74/122/115 72/120/114 82/131/124 84/133/125
f 75/123/116 74/122/115 84/133/125 85/134/126
f 76/124/117 75/123/116 85/134/126 86/135/127
f 77/125/118 76/124/117 86/135/127 87/136/128
f 78/126/119 77/125/118 87/136/128 88/137/129
f 79/127/120 78/126/119 88/137/129 89/138/130
f 80/128/121 79/127/120 89/138/130 90/139/131
f 81/129/122 80/128/121 90/139/131 91/140/132
f 73/130/113 81/129/122 91/140/132 83/141/123
f 82/131/124 83/132/123 93/143/133 92/142/134
f 84/133/125 82/131/124 92/142/134 94/144/135
f 85/134/126 84/133/125 94/144/135 95/145/136
f 86/135/127 85/134/126 95/145/136 96/146/137
f 87/136/128 86/135/127 96/146/137 97/147/138
f 88/137/129 87/136/128 97/147/138 98/148/139
f 89/138/130 88/137/129 98/148/139 99/149/140
f 90/139/131 89/138/130 99/149/140 100/150/141
f 91/140/132 90/139/131 100/150/141 101/151/142
f 83/141/123 91/140/132 101/151/142 93/152/133
f 92/142/134 93/143/133 103/154/143 102/153/144
f 94/144/135 92/142/134 102/153/144 104/155/145
f 95/145/136 94/144/135 104/155/145 105/156/146
f 96/146/137 95/145/136 105/156/146 106/157/147
f 97/147/138 96/146/137 106/157/147 107/158/148
f 98/148/139 97/147/138 107/158/148 108/159/149
f 99/149/140 98/148/139 108/159/149 109/160/150
f 100/150/141 99/149/140 109/160/150 110/161/151
f 101/151/142 100/150/141 110/161/151 111/162/152
f 93/152/133 101/151/142 111/162/152 103/163/143
f 102/153/144 103/154/143 113/165/153 112/164/154
f 104/155/145 102/153/144 112/164/154 114/166/155
f 105/156/146 104/155/145 114/166/155 115/167/156
f 106/157/147 105/156/146 115/167/156 116/168/157
f 107/158/148 106/157/147 116/168/157 117/169/158
f 108/159/149 107/158/148 117/169/158 118/170/159
f 109/160/150 108/159/149 118/170/159 119/171/160
f 110/161/151 109/160/150 119/171/160 120/172/161
f 111/162/152 110/161/151 120/172/161 121/173/162
f 103/163/143 111/162/152 121/173/162 113/174/153
f 112/164/154 113/165/153 123/176/163 122/175/164
f 114/166/155 112/164/154 122/175/164 124/177/165
f 115/167/156 114/166/155 124/177/165 125/178/166
f 116/168/157 115/167/156 125/178/166 126/179/167
f 117/169/158 116/168/157 126/179/167 127/180/168
f 118/170/159 117/169/158 127/180/168 128/181/169
f 119/171/160 118/170/159 128/181/169 129/182/170
f 120/172/161 119/171/160 129/182/170 130/183/171
f 121/173/162 120/172/161 130/183/171 131/184/172
f 113/174/153 121/173/162 131/184/172 123/185/163
f 122/175/164 123/176/163 153/187/173 152/186/174
f 124/177/165 122/175/164 152/186/174 154/188/175
f 125/178/166 124/177/165 154/188/175 155/189/176
f 126/179/167 125/178/166 155/189/176 156/190/177
f 127/180/168 126/179/167 156/190/177 157/191/178
f 128/181/169 127/180/168 157/191/178 158/192/179
f 129/182/170 128/181/169 158/192/179 159/193/180
f 130/183/171 129/182/170 159/193/180 160/194/181
f 131/184/172 130/183/171 160/194/181 161/195/182
f 123/185/163 131/184/172 161/195/182 153/196/173
f 52/98/34 53/99/33 164/198/94 163/197/93
f 53/108/33 61/107/50 165/200/111 164/199/94
f 61/107/50 60/106/48 166/201/109 165/200/111
f 60/106/48 59/105/46 167/202/107 166/201/109
f 59/105/46 58/104/44 168/203/105 167/202/107
f 58/104/44 57/103/42 169/204/103 168/203/105
f 57/103/42 56/102/40 170/205/101 169/204/103
f 56/102/40 55/101/38 171/206/99 170/205/101
f 55/101/38 54/100/36 172/207/97 171/206/99
f 54/100/36 52/98/34 163/197/93 172/207/97
